Factors influencing the rental bid of hawker stalls
…
stall_size_X_public_trnspt_grid <- successful_bids_df %>% 
  data_grid(stall_area_sqm, # Explanatory variable
            cooked = mean(cooked),
            central = mean(central),
            min_dist_public_trnspt = c(mean(min_dist_public_trnspt) - sd(min_dist_public_trnspt),
                                       mean(min_dist_public_trnspt),
                                       mean(min_dist_public_trnspt + sd(min_dist_public_trnspt))),
            min_dist_private_trnspt = mean(min_dist_private_trnspt)
  ) %>%
  mutate(predicted_tendered_bid = predict(poisson_interact_A, . , type = "response"))

stall_size_X_public_trnspt_grid

## # A tibble: 783 x 6
##    stall_area_sqm cooked central min_dist_public_trnspt min_dist_private_trnspt
##             <dbl>  <dbl>   <dbl>                  <dbl>                   <dbl>
##  1           2.08  0.418  0.0809                   112.                    114.
##  2           2.08  0.418  0.0809                   320.                    114.
##  3           2.08  0.418  0.0809                   529.                    114.
##  4           2.3   0.418  0.0809                   112.                    114.
##  5           2.3   0.418  0.0809                   320.                    114.
##  6           2.3   0.418  0.0809                   529.                    114.
##  7           3     0.418  0.0809                   112.                    114.
##  8           3     0.418  0.0809                   320.                    114.
##  9           3     0.418  0.0809                   529.                    114.
## 10           3.8   0.418  0.0809                   112.                    114.
## # ... with 773 more rows, and 1 more variable: predicted_tendered_bid <dbl>

stall_size_X_private_trnspt_grid <- successful_bids_df %>% 
  modelr::data_grid(stall_area_sqm, # Explanatory variable
                    cooked = mean(cooked),
                    central = mean(central),
                    min_dist_public_trnspt = mean(min_dist_public_trnspt),
                    min_dist_private_trnspt = c(mean(min_dist_private_trnspt)- sd(min_dist_private_trnspt),
                                                      mean(min_dist_private_trnspt),
                                                      mean(min_dist_private_trnspt) + sd(min_dist_private_trnspt))
  ) %>%
  mutate(predicted_tendered_bid = predict(poisson_interact_A, . , type = "response"))

stall_size_X_private_trnspt_grid

## # A tibble: 783 x 6
##    stall_area_sqm cooked central min_dist_public_trnspt min_dist_private_trnspt
##             <dbl>  <dbl>   <dbl>                  <dbl>                   <dbl>
##  1           2.08  0.418  0.0809                   320.                   -92.2
##  2           2.08  0.418  0.0809                   320.                   114. 
##  3           2.08  0.418  0.0809                   320.                   320. 
##  4           2.3   0.418  0.0809                   320.                   -92.2
##  5           2.3   0.418  0.0809                   320.                   114. 
##  6           2.3   0.418  0.0809                   320.                   320. 
##  7           3     0.418  0.0809                   320.                   -92.2
##  8           3     0.418  0.0809                   320.                   114. 
##  9           3     0.418  0.0809                   320.                   320. 
## 10           3.8   0.418  0.0809                   320.                   -92.2
## # ... with 773 more rows, and 1 more variable: predicted_tendered_bid <dbl>
…
